Active Duty Marital Status HW3 - bakharia
…
78    92
79     6
80     6
81   122
82    12
83    10
84    72
85     3
86     4
87    64
88     2
89     1
90    10

# A tibble: 646 x 7
   Type  Grade Branch      Status  Enrolled Plan   Gender
   <chr> <chr> <chr>       <chr>      <dbl> <chr>  <chr> 
 1 E     1     AirForce    Single      7721 Single M     
 2 E     1     AirForce    Single      1550 Single F     
 3 E     1     AirForce    Single        27 Family M     
 4 E     1     AirForce    Single         5 Family F     
 5 E     1     AirForce    Single        49 Family M     
 6 E     1     AirForce    Single        27 Family F     
 7 E     1     AirForce    Married     1064 Family M     
 8 E     1     AirForce    Married      178 Family F     
 9 E     1     MarineCorps Single      6232 Single M     
10 E     1     MarineCorps Single       583 Single F     
# ... with 636 more rows
…
