RAILROAD-COUNTY-TRACY
…
#Among Counties with Railroad Employees, what is the average number of employees in each county 
summarise(data,avg=mean(total_employees))

       avg
1 87.17816

#Among Counties with Railroad Employees, what is the average number of employees in each county that has railroad employees, by state
data %>%
  group_by(state) %>%
  summarise(avg=mean(total_employees))

# A tibble: 53 × 2
   state   avg
   <chr> <dbl>
 1 AE      2  
 2 AK     17.2
 3 AL     63.5
 4 AP      1  
 5 AR     53.8
 6 AZ    210. 
 7 CA    239. 
 8 CO     64.0
 9 CT    324  
10 DC    279  
# … with 43 more rows
…
